{
	"tasks": {
		"lume": "echo \"import 'lume/cli.ts'\" | deno run --unstable -A -",
		"build": "deno task lume",
		"serve": "deno task lume -s",
		"commit": "git stage -A && git commit",
		"push": "deno task commit && git push"
	},
	"imports": {
		"lume/": "https://deno.land/x/lume@v1.18.0/"
	}
}